<?xml version="1.0" encoding="UTF-8" standalone="no"?>
<svg
   xmlns:dc="http://purl.org/dc/elements/1.1/"
   xmlns:cc="http://creativecommons.org/ns#"
   xmlns:rdf="http://www.w3.org/1999/02/22-rdf-syntax-ns#"
   xmlns:svg="http://www.w3.org/2000/svg"
   xmlns="http://www.w3.org/2000/svg"
   xmlns:sodipodi="http://sodipodi.sourceforge.net/DTD/sodipodi-0.dtd"
   xmlns:inkscape="http://www.inkscape.org/namespaces/inkscape"
   width="3mm"
   height="3mm"
   viewBox="0 0 3 3"
   version="1.1"
   id="svg8"
   inkscape:version="1.0 (unknown)"
   sodipodi:docname="bullet-small-2.svg">
  <defs
     id="defs2">
    <filter
       inkscape:label="Air Spray"
       inkscape:menu="Scatter"
       inkscape:menu-tooltip="Convert to small scattered particles with some thickness"
       width="2"
       height="2"
       y="-0.5"
       x="-0.5"
       style="color-interpolation-filters:sRGB"
       id="filter855">
      <feGaussianBlur
         stdDeviation="0.01"
         result="result1"
         id="feGaussianBlur843" />
      <feBlend
         in2="result1"
         result="fbSourceGraphic"
         mode="multiply"
         id="feBlend845" />
      <feTurbulence
         baseFrequency="0.8"
         type="fractalNoise"
         seed="0"
         numOctaves="3"
         result="result3"
         id="feTurbulence847" />
      <feDisplacementMap
         in="fbSourceGraphic"
         xChannelSelector="R"
         yChannelSelector="G"
         scale="50"
         result="result2"
         in2="result3"
         id="feDisplacementMap849" />
      <feMorphology
         radius="1"
         operator="dilate"
         result="result4"
         id="feMorphology851" />
      <feBlend
         mode="screen"
         in2="result2"
         id="feBlend853" />
    </filter>
    <filter
       inkscape:label="Chalk and Sponge"
       inkscape:menu="Distort"
       inkscape:menu-tooltip="Low turbulence gives sponge look and high turbulence chalk"
       width="1.6"
       height="2"
       y="-0.5"
       x="-0.30000001"
       style="color-interpolation-filters:sRGB"
       id="filter883">
      <feTurbulence
         baseFrequency="0.4"
         type="fractalNoise"
         seed="0"
         numOctaves="5"
         result="result1"
         id="feTurbulence879" />
      <feDisplacementMap
         xChannelSelector="R"
         yChannelSelector="G"
         scale="30"
         in="SourceGraphic"
         in2="result1"
         id="feDisplacementMap881" />
    </filter>
  </defs>
  <sodipodi:namedview
     id="base"
     pagecolor="#ffffff"
     bordercolor="#666666"
     borderopacity="1.0"
     inkscape:pageopacity="0.0"
     inkscape:pageshadow="2"
     inkscape:zoom="44.8"
     inkscape:cx="12.385751"
     inkscape:cy="9.3793754"
     inkscape:document-units="mm"
     inkscape:current-layer="layer1"
     inkscape:document-rotation="0"
     showgrid="false"
     inkscape:window-width="1920"
     inkscape:window-height="1080"
     inkscape:window-x="0"
     inkscape:window-y="0"
     inkscape:window-maximized="0" />
  <metadata
     id="metadata5">
    <rdf:RDF>
      <cc:Work
         rdf:about="">
        <dc:format>image/svg+xml</dc:format>
        <dc:type
           rdf:resource="http://purl.org/dc/dcmitype/StillImage" />
        <dc:title></dc:title>
      </cc:Work>
    </rdf:RDF>
  </metadata>
  <g
     inkscape:label="Layer 1"
     inkscape:groupmode="layer"
     id="layer1">
    <path
       sodipodi:type="star"
       style="opacity:0.99;fill:none;stroke:#dcdccc;stroke-width:10.265;stroke-miterlimit:4;stroke-dasharray:none;filter:url(#filter883)"
       id="path857"
       sodipodi:sides="11"
       sodipodi:cx="76.936462"
       sodipodi:cy="128.39699"
       sodipodi:r1="19.305948"
       sodipodi:r2="0.19305949"
       sodipodi:arg1="0.62524582"
       sodipodi:arg2="0.91084516"
       inkscape:flatsided="false"
       inkscape:rounded="0.12"
       inkscape:randomized="2.751"
       d="m 137.05668,118.53453 c 0.49495,-2.3577 -109.667496,27.8332 -109.442066,27.47318 0.225431,-0.36003 103.174826,12.05565 102.143446,14.10536 -1.03139,2.04971 -45.188266,-74.371149 -47.027193,-73.24406 -1.838927,1.127089 -7.944953,81.15737 -5.820559,78.4872 2.124395,-2.67017 -35.164686,-81.438917 -31.830927,-79.349053 3.333758,2.089865 54.475166,31.781273 54.664945,31.430893 0.189779,-0.35039 -70.544997,8.2669 -68.695955,11.0369 1.849043,2.77 -11.684849,-45.445904 -12.796527,-47.545542 -1.111678,-2.099637 6.344288,35.320222 6.387516,32.418002 0.04323,-2.90221 36.954165,52.35512 36.878361,57.2436 -0.0758,4.88848 32.506439,-20.79133 32.471634,-20.88632 -0.03481,-0.095 4.286478,-74.950316 5.49491,-74.136695 1.208435,0.813622 -46.613575,57.947065 -46.07747,58.176105 0.536106,0.22903 47.889485,21.72411 50.462545,21.43694 2.57307,-0.28717 -0.87033,4.79459 -1.41312,7.98955 -0.54279,3.19495 -36.645191,-42.37188 -36.678427,-42.42957 -0.03324,-0.0577 13.822162,-27.251824 11.275441,-22.577859 -2.546721,4.673969 69.868806,-28.497664 65.243066,-29.683166 -4.62575,-1.185503 -49.31377,43.757355 -51.660226,39.223795 -2.346456,-4.53355 -29.391912,56.80273 -30.761899,61.10952 -1.369988,4.3068 -3.604822,-43.44853 -3.618965,-47.89603 -0.01414,-4.4475 80.30651,-0.025 80.80147,-2.38275 z"
       inkscape:transform-center-x="-0.055393763"
       inkscape:transform-center-y="-0.01460978"
       transform="matrix(0.01555879,0,0,0.01555879,0.27410242,-0.50216596)" />
  </g>
</svg>
