<?xml version="1.0" encoding="UTF-8" standalone="no"?>
<svg
   xmlns:dc="http://purl.org/dc/elements/1.1/"
   xmlns:cc="http://creativecommons.org/ns#"
   xmlns:rdf="http://www.w3.org/1999/02/22-rdf-syntax-ns#"
   xmlns:svg="http://www.w3.org/2000/svg"
   xmlns="http://www.w3.org/2000/svg"
   xmlns:sodipodi="http://sodipodi.sourceforge.net/DTD/sodipodi-0.dtd"
   xmlns:inkscape="http://www.inkscape.org/namespaces/inkscape"
   id="svg8"
   version="1.1"
   viewBox="0 0 2 2"
   height="2mm"
   width="2mm"
   sodipodi:docname="bullet-black2.svg"
   inkscape:version="1.0 (unknown)">
  <sodipodi:namedview
     inkscape:document-rotation="0"
     pagecolor="#ffffff"
     bordercolor="#666666"
     borderopacity="1"
     objecttolerance="10"
     gridtolerance="10"
     guidetolerance="10"
     inkscape:pageopacity="0"
     inkscape:pageshadow="2"
     inkscape:window-width="1920"
     inkscape:window-height="1080"
     id="namedview929"
     showgrid="false"
     inkscape:zoom="47.042917"
     inkscape:cx="9.4488189"
     inkscape:cy="9.4488189"
     inkscape:window-x="0"
     inkscape:window-y="0"
     inkscape:window-maximized="0"
     inkscape:current-layer="svg8" />
  <defs
     id="defs2">
    <rect
       id="rect841"
       height="155.24168"
       width="147.01704"
       y="71.146683"
       x="12.936457" />
    <rect
       id="rect835"
       height="114.92416"
       width="103.64027"
       y="86.896759"
       x="30.301907" />
    <filter
       id="filter1064"
       x="-0.1"
       y="-0.1"
       width="1.2"
       height="1.2"
       style="color-interpolation-filters:sRGB">
      <feTurbulence
         id="feTurbulence1046"
         result="result1"
         numOctaves="3"
         baseFrequency="1"
         type="fractalNoise"
         seed="50" />
      <feColorMatrix
         id="feColorMatrix1048"
         result="result0"
         in="SourceGraphic"
         type="luminanceToAlpha" />
      <feColorMatrix
         id="feColorMatrix1050"
         values="1 0 0 0 0 0 1 0 0 0 0 0 1 0 0 0 0 0 0.5 0 "
         result="result2" />
      <feComposite
         id="feComposite1052"
         in2="result2"
         in="result1"
         operator="over"
         result="result3" />
      <feColorMatrix
         id="feColorMatrix1054"
         values="1 0 0 0 0 0 1 0 0 0 0 0 1 0 0 0 0 0 5 -3.2"
         result="result91" />
      <feComposite
         k4="0"
         k3="0"
         k2="0"
         id="feComposite1056"
         result="result93"
         k1="1.5"
         operator="arithmetic"
         in2="result91" />
      <feComposite
         id="feComposite1058"
         result="result4"
         operator="out"
         in="SourceGraphic"
         in2="result93" />
      <feComposite
         k4="0"
         k3="0"
         id="feComposite1060"
         k1="1"
         k2="0.5"
         operator="arithmetic"
         in2="result4" />
      <feDisplacementMap
         id="feDisplacementMap1062"
         result="result92"
         in2="result1"
         yChannelSelector="A"
         xChannelSelector="R"
         scale="15" />
    </filter>
    <filter
       id="filter1350"
       style="color-interpolation-filters:sRGB"
       x="-0.2"
       width="1.4"
       y="-0.2"
       height="1.4">
      <feTurbulence
         id="feTurbulence1344"
         result="result91"
         type="fractalNoise"
         numOctaves="5"
         baseFrequency="0.05" />
      <feDisplacementMap
         yChannelSelector="A"
         id="feDisplacementMap1346"
         in2="result91"
         in="SourceGraphic"
         xChannelSelector="R"
         result="result5"
         scale="25" />
      <feComposite
         id="feComposite1348"
         in2="result5"
         operator="atop"
         in="SourceGraphic" />
    </filter>
    <filter
       id="filter1498"
       style="color-interpolation-filters:sRGB"
       x="-0.30000001"
       y="-0.5"
       height="2"
       width="1.6">
      <feTurbulence
         id="feTurbulence1494"
         result="result1"
         numOctaves="5"
         seed="0"
         type="fractalNoise"
         baseFrequency="0.4" />
      <feDisplacementMap
         id="feDisplacementMap1496"
         in2="result1"
         in="SourceGraphic"
         scale="30"
         yChannelSelector="G"
         xChannelSelector="R" />
    </filter>
    <filter
       id="filter1508"
       style="color-interpolation-filters:sRGB"
       x="-0.15000001"
       width="1.3"
       y="-0.15000001"
       height="1.3">
      <feTurbulence
         id="feTurbulence1502"
         result="result1"
         baseFrequency="0.1"
         type="fractalNoise"
         seed="0"
         numOctaves="5" />
      <feGaussianBlur
         id="feGaussianBlur1504"
         result="result2"
         stdDeviation="2" />
      <feDisplacementMap
         id="feDisplacementMap1506"
         in2="result2"
         in="SourceGraphic"
         xChannelSelector="R"
         yChannelSelector="B"
         scale="50" />
    </filter>
  </defs>
  <metadata
     id="metadata5">
    <rdf:RDF>
      <cc:Work
         rdf:about="">
        <dc:format>image/svg+xml</dc:format>
        <dc:type
           rdf:resource="http://purl.org/dc/dcmitype/StillImage" />
        <dc:title></dc:title>
      </cc:Work>
    </rdf:RDF>
  </metadata>
  <g
     style="opacity:0.484923"
     id="layer2" />
  <path
     sodipodi:type="star"
     style="opacity:0.99;fill:#000000;fill-opacity:1;stroke:none;stroke-width:4.35295"
     id="path1083"
     sodipodi:sides="11"
     sodipodi:cx="1.0055284"
     sodipodi:cy="0.98249821"
     sodipodi:r1="0.95672905"
     sodipodi:r2="0.0095672905"
     sodipodi:arg1="0.56007142"
     sodipodi:arg2="0.84567075"
     inkscape:flatsided="false"
     inkscape:rounded="0.89"
     inkscape:randomized="0"
     d="M 1.8160857,1.4907574 C 1.3680735,2.2052345 1.6430298,0.43034238 1.0118738,0.98965854 0.38071774,1.5489747 2.1757943,1.4894507 1.412627,1.8482934 0.64945964,2.2071361 1.8403467,0.86265441 1.0069953,0.9919524 0.17364393,1.1212504 1.7159396,2.0416673 0.87991732,1.9309456 0.04389507,1.8202239 1.7726147,1.333016 1.0016511,0.99124463 0.23068757,0.64947325 1.0305343,2.2576052 0.38708831,1.7124724 -0.25635769,1.1673396 1.4613383,1.6920907 0.99753799,0.98775993 0.53373772,0.28342918 0.33718986,2.0687056 0.09060967,1.2622376 -0.15597053,0.45576954 1.0053454,1.8258748 0.99596175,0.98260468 0.98657809,0.1393346 -0.1439618,1.5349429 0.08461128,0.72318751 0.31318436,-0.08856789 0.54941068,1.6918928 0.99742288,0.97741564 1.4454351,0.26293851 -0.26015843,0.82578293 0.37099758,0.26646676 1.0021536,-0.29284941 0.23829013,1.332683 1.0014575,0.97384028 1.7646248,0.61499755 0.02549158,0.16637894 0.85884296,0.03708094 1.6921943,-0.09221706 0.17076231,0.86229206 1.0067846,0.97301376 1.8428068,1.0837355 0.62229637,-0.23391295 1.3932599,0.10785843 2.1642235,0.4496298 0.36826685,0.43006572 1.0117129,0.97519849 1.6551589,1.5203313 1.3407746,-0.24800287 1.8045749,0.45632788 2.2683752,1.1606586 0.76809744,0.17323279 1.0146776,0.97970083 1.2612578,1.7861689 1.9528146,0.1285826 1.9621983,0.97185269 1.9715819,1.8151228 1.2433107,0.17333593 1.0147376,0.98509134 0.78616454,1.7968467 2.2640979,0.77628026 1.8160857,1.4907574 Z"
     inkscape:transform-center-x="-0.017620695"
     inkscape:transform-center-y="0.0014949023" />
</svg>
