<?xml version="1.0" encoding="UTF-8" standalone="no"?>
<svg
   xmlns:dc="http://purl.org/dc/elements/1.1/"
   xmlns:cc="http://creativecommons.org/ns#"
   xmlns:rdf="http://www.w3.org/1999/02/22-rdf-syntax-ns#"
   xmlns:svg="http://www.w3.org/2000/svg"
   xmlns="http://www.w3.org/2000/svg"
   xmlns:sodipodi="http://sodipodi.sourceforge.net/DTD/sodipodi-0.dtd"
   xmlns:inkscape="http://www.inkscape.org/namespaces/inkscape"
   sodipodi:docname="pi-hr-print.svg"
   version="1.0"
   inkscape:version="1.0 (unknown)"
   sodipodi:version="0.32"
   id="svg2"
   height="67"
   width="925">
  <defs
     id="defs4" />
  <sodipodi:namedview
     inkscape:window-maximized="0"
     showgrid="false"
     inkscape:document-rotation="0"
     inkscape:window-y="0"
     inkscape:window-x="0"
     inkscape:window-height="1080"
     inkscape:window-width="1920"
     height="400px"
     width="240px"
     inkscape:current-layer="layer2"
     inkscape:document-units="px"
     inkscape:cy="81.519242"
     inkscape:cx="635.37922"
     inkscape:zoom="1.4142136"
     inkscape:pageshadow="2"
     inkscape:pageopacity="0.0"
     objecttolerance="10"
     guidetolerance="10"
     gridtolerance="10000"
     borderopacity="1.0"
     bordercolor="#666666"
     pagecolor="#ffffff"
     id="base" />
  <metadata
     id="metadata7">
    <rdf:RDF>
      <cc:Work
         rdf:about="">
        <dc:format>image/svg+xml</dc:format>
        <dc:type
           rdf:resource="http://purl.org/dc/dcmitype/StillImage" />
        <dc:title></dc:title>
      </cc:Work>
    </rdf:RDF>
  </metadata>
  <g
     sodipodi:insensitive="true"
     style="display:none;mix-blend-mode:luminosity"
     inkscape:label="cross"
     id="layer3"
     inkscape:groupmode="layer">
    <path
       style="fill:none;stroke:#000000;stroke-width:1px;stroke-linecap:butt;stroke-linejoin:miter;stroke-opacity:1"
       d="m -12.414893,33.602863 c 947.305323,0 947.305323,3.12013 947.305323,3.12013 v 0"
       id="path903" />
    <path
       style="fill:none;stroke:#000000;stroke-width:1px;stroke-linecap:butt;stroke-linejoin:miter;stroke-opacity:1"
       d="m 461.9152,-229.94642 c 0,630.63699 0,630.63699 0,630.63699"
       id="path907" />
  </g>
  <g
     sodipodi:insensitive="true"
     style="display:inline;opacity:1"
     inkscape:label="hr"
     id="layer2"
     inkscape:groupmode="layer">
    <rect
       inkscape:transform-center-y="-0.55080992"
       inkscape:transform-center-x="-1.0344557"
       style="opacity:0.99;fill:#000000;fill-opacity:1;stroke:#ffffff;stroke-width:0;stroke-linecap:round;stroke-miterlimit:4;stroke-dasharray:none;stroke-opacity:1"
       id="rect893"
       width="917.12885"
       height="8.9264202"
       x="3.6976719"
       y="29.369722"
       ry="4.4632101" />
    <ellipse
       ry="29.623243"
       rx="24.059175"
       cy="34.033691"
       cx="461.99527"
       id="path944"
       style="opacity:0.99;fill:#000000;fill-opacity:1;stroke:none;stroke-width:29.5776;stroke-miterlimit:4;stroke-dasharray:none" />
  </g>
  <g
     sodipodi:insensitive="true"
     style="display:inline"
     inkscape:label="pi"
     id="layer4"
     inkscape:groupmode="layer">
    <g
       transform="matrix(0.97479783,0,0,0.97479783,-12.786201,412.83161)"
       id="g1108">
      <text
         xml:space="preserve"
         style="font-style:normal;font-weight:normal;line-height:0%;font-family:Lello;fill:#000000;fill-opacity:1;stroke:none;stroke-width:1px;stroke-linecap:butt;stroke-linejoin:miter;stroke-opacity:1"
         x="-471.24011"
         y="-946.41162"
         id="text2171"><tspan
           sodipodi:role="line"
           id="tspan2173"
           x="-471.24011"
           y="-946.41162"
           style="font-size:12px;line-height:1.25"> </tspan></text>
      <path
         id="text2175"
         style="font-style:normal;font-weight:normal;font-size:2050.28px;font-family:'Times New Roman';fill:#ffffff;fill-opacity:1;stroke:none;stroke-width:0.0369938px;stroke-linecap:butt;stroke-linejoin:miter;stroke-opacity:1"
         d="m 481.36988,-406.32738 c -3.06158,3e-5 -5.19112,0.25933 -6.38858,0.77778 -1.19746,0.51853 -2.36409,1.62957 -3.49982,3.33315 -1.13575,1.70364 -2.0616,3.87635 -2.77761,6.51815 h 1.33324 c 0.9629,-1.6789 1.9814,-2.96892 3.05541,-3.87014 1.07401,-0.90115 2.62334,-1.35177 4.64794,-1.35179 h 2.51834 c -0.49381,6.17252 -1.22217,10.67228 -2.18506,13.49927 -0.96292,2.82702 -2.41962,5.54908 -4.37013,8.16622 -1.33326,1.80237 -1.9999,3.22202 -1.99989,4.25898 -10e-6,1.08636 0.38882,1.96286 1.16656,2.62948 0.77774,0.66663 1.73452,0.99995 2.87027,0.99995 1.50608,0 2.69735,-0.60487 3.57385,-1.81468 0.8765,-1.20981 1.67894,-3.88869 2.4073,-8.03661 0.72834,-4.14792 1.35174,-10.71543 1.87024,-19.70261 h 7.85139 l -0.99995,10.6661 c -0.5185,5.57996 -0.77772,9.23401 -0.7777,10.9623 -2e-5,2.61714 0.66043,4.59234 1.98136,5.92561 1.32088,1.33325 3.06772,1.99989 5.24047,1.99989 4.66637,0 7.40697,-3.43189 8.22177,-10.29572 h -1.33331 c -0.44445,2.9875 -1.85178,4.48126 -4.22197,4.48125 -1.13578,10e-6 -2.10481,-0.3765 -2.90721,-1.12956 -0.80246,-0.75302 -1.20368,-2.84552 -1.20364,-6.27743 -4e-5,-1.432 0.0739,-3.12327 0.22216,-5.07378 l 0.74076,-11.25866 h 8.59209 v -5.40715 z" />
    </g>
  </g>
</svg>
